%YAML 1.1
%TAG !u! tag:unity3d.com,2011:
--- !u!1045 &1
EditorBuildSettings:
  m_ObjectHideFlags: 0
  serializedVersion: 2
  m_Scenes:
  - enabled: 1
    path: Assets/Scenes/Menu.unity
    guid: 382f951ea7b70544e988dfb40e3726c4
  - enabled: 1
    path: Assets/Scenes/Level1.unity
    guid: 99abb0c6fcb57b647b59ec486230e617
  m_configObjects: {}
